BE5613,39856.11
YR3217,37295.86
YR8837,35909.16
BE1054,35460.81
YR4098,35175.63
YR6068,34391.63
BE5092,34370.07
YR8129,34057.94
YR8558,33890.36
YR5190,33550.79
BE2494,33453.28
BE4797,32894.19
YR5698,32507.09
YR6095,32349.31
BE9667,31870.09
BE9002,31731.91
OJ5085,31672.20
BE3466,31510.43
GQ5324,31384.50
XV5324,31384.50
BE9628,31160.08
BE3513,30979.27
BE3684,30830.31
OJ2536,30470.58
XV1054,30394.98
BE2612,29692.53
BE9451,29677.83
XV4868,29394.54
OJ5865,29383.20
BE2889,29098.65
OJ9992,29070.72
OJ8558,29048.88
GQ8275,28854.00
XV6314,28636.86
YR2955,28603.26
BE6167,28561.12
XV3949,28409.64
XV7687,28364.28
GQ9387,28254.66
YR6083,28197.05
XV4797,28195.02
OJ9732,28169.40
BE5386,28025.55
XV9568,27972.84
GQ9568,27972.84
OJ1343,27759.06
XV1780,27746.46
GQ1780,27746.46
GQ6095,27727.98
YR7220,27723.22
YR4226,27685.49
YR7896,27619.83
OJ4468,27514.62
XV6177,27020.28
GQ6177,27020.28
XV7397,26951.82
OJ9269,26483.10
YR4165,26415.41
BE9225,26342.89
OJ7306,26327.70
BE6693,26282.13
XV4304,26275.20
BE3766,26249.79
YR5986,26246.36
XV5488,26137.86
GQ5488,26137.86
YR5005,25789.68
OJ3183,25625.04
OJ9922,25610.34
XV9784,25532.64
GQ9784,25532.64
GQ8531,25328.10
XV8531,25328.10
GQ7785,25252.92
XV7785,25252.92
YR4591,25219.81
XV2889,24941.70
XV4721,24919.44
GQ4721,24919.44
GQ4211,24805.62
XV4211,24805.62
OJ7592,24749.76
BE5249,24745.98
YR1475,24547.04
OJ2955,24517.08
GQ8391,24477.18
XV8391,24477.18
XV8870,24046.26
GQ8870,24046.26
OJ4886,23993.34
XV7837,23722.44
GQ8207,23684.22
GQ7896,23674.14
XV6365,23646.00
XV1461,23497.74
GQ1461,23497.74
OJ6529,23065.98
OJ3977,23026.50
XV2163,22989.54
GQ2163,22989.54
YR1845,22644.86
XV6693,22527.54
XV3766,22499.82
XV4758,22393.14
XV3375,22159.20
XV3360,22130.22
GQ3360,22130.22
OJ5005,22105.44
GQ3106,21931.56
GQ3700,21928.62
OJ9422,21665.70
BE4691,21490.91
GQ4201,21438.48
YR1632,21256.20
XV5249,21210.84
YR1393,21185.15
YR8834,20950.93
GQ3170,20948.76
YR8867,20538.35
BE8164,20401.64
YR2692,20267.87
YR8473,20230.14
YR4368,20100.78
BE7495,20054.23
YR5253,19967.99
XV7388,19625.34
GQ7388,19625.34
OJ5020,19603.08
BE1377,19223.19
YR8737,18913.02
BE2437,18717.02
XV5000,18662.70
GQ5000,18662.70
OJ2470,18597.18
XV3613,18569.04
BE7565,18250.05
YR8930,18241.72
OJ1393,18158.70
XV7679,18076.80
GQ7679,18076.80
OJ8445,18014.22
BE4659,17631.67
OJ1674,17621.52
OJ8867,17604.30
BE1512,17604.23
OJ2461,17541.30
GQ3587,17426.22
YR6219,17229.87
GQ4368,17229.24
GQ1372,17096.94
OJ2039,16920.54
XV2437,16043.16
OJ8079,15805.86
GQ9524,15161.58
OJ8807,13505.52
